{
    "code": 200,
    "message": "ok",
    "data": {
        "list": [
            {
                "nameCN": "盾之勇者成名录 第四季",
                "summary": "盾之勇者·岩谷尚文准备着与即将复活的四灵“凤凰”战斗，为了让互相反目的四圣勇者团结起来，他与其他三名勇者对峙，最终四人达成和解。\n然而，拉芙塔莉雅却遭到九天楼派来的刺客袭击，理由是误认为她有继承王位之意。\n尚文为了与九天楼谈判，来到了唯一存在前往九天楼的渡轮的亚人之国·席德威鲁特，并受到了信仰盾之勇者的亚人们的热烈欢迎。但席德威鲁特并非上下一心，也有人并不欢迎尚文一行。\n九天楼的政局也同样存在危机，拉芙塔莉雅被视为了革命的旗帜。\n在混乱至极的局势之中，尚文能否成为指引同伴的光芒……",
                "cover": "https://i0.hdslb.com/bfs/bangumi/image/9ab477d538d0f51623ab63b058c290b8a211cdf7.png",
                "url": "https://www.bilibili.com/bangumi/play/ss102130",
                "labels": [
                    {
                        "label": "更新至第6话"
                    },
                    {
                        "label": "评分",
                        "value": 6.6
                    },
                    {
                        "label": "播放量",
                        "value": "640.5万"
                    },
                    {
                        "label": "追番数",
                        "value": "628.2万"
                    },
                    {
                        "label": "投币数",
                        "value": "8754"
                    },
                    {
                        "label": "弹幕数",
                        "value": "1.4万"
                    }
                ]
            },
            {
                "nameCN": "伍六七之记忆碎片",
                "summary": "为了找回珍视的伙伴，伍六七重回玄武国，面对那些被遗忘的记忆碎片。尘封的真相带来痛苦与愤怒，但现在的他不再是孤身一人。拥有力量，究竟是为了什么？这一次，伍六七要为自己的人生做出新的选择…",
                "cover": "https://i0.hdslb.com/bfs/bangumi/image/4ca65598089129eb1cb5916f97dbb2c5f032ae88.png",
                "url": "https://www.bilibili.com/bangumi/play/ss48315",
                "labels": [
                    {
                        "label": "全10话"
                    },
                    {
                        "label": "评分",
                        "value": 7.7
                    },
                    {
                        "label": "播放量",
                        "value": "3.2亿"
                    },
                    {
                        "label": "追番数",
                        "value": "1407.7万"
                    },
                    {
                        "label": "投币数",
                        "value": "297.4万"
                    },
                    {
                        "label": "弹幕数",
                        "value": "406.7万"
                    }
                ]
            },
            {
                "nameCN": "伍六七之暗影宿命",
                "summary": "随着伍六七回到玄武国寻找他的身世，亦引起了七大暗影刺客的追捕。然而每一位暗影刺客都带着不同的目的和不同的过去，青凤的阴谋也在此浮出了水面。而此时等待着小鸡岛上的人民，又将是另一个危机，伍六七将如何面对他的抉择？",
                "cover": "https://i0.hdslb.com/bfs/bangumi/image/6e5c5848ff8943fd6366e943a4f75b98598c50c6.png",
                "url": "https://www.bilibili.com/bangumi/play/ss44176",
                "labels": [
                    {
                        "label": "全10话"
                    },
                    {
                        "label": "评分",
                        "value": 9.2
                    },
                    {
                        "label": "播放量",
                        "value": "6.6亿"
                    },
                    {
                        "label": "追番数",
                        "value": "1262万"
                    },
                    {
                        "label": "投币数",
                        "value": "438.8万"
                    },
                    {
                        "label": "弹幕数",
                        "value": "142.2万"
                    }
                ]
            },
            {
                "nameCN": "只有我不存在的城市",
                "summary": "藤沼悟是一个三流漫画家，但是他却拥有着名为“再上映”（可以穿越到事件发生之前的时间点，阻止事件发生，但失败了会一直重复）的能力。某天，当回到家里的时候他发现了自己母亲遇害的一幕，并且自己被嫁祸为杀人凶手。就在这时候，由于再上映的关系，他突然回到了18年前·小学五年级的时候，而这一刻他不但要拯救母亲，也要为了同学的安全而战……",
                "cover": "https://i0.hdslb.com/bfs/bangumi/image/7f5c1d29ede597590cbfab7820a5096469b6030e.png",
                "url": "https://www.bilibili.com/bangumi/play/ss3096",
                "labels": [
                    {
                        "label": "全12话"
                    },
                    {
                        "label": "评分",
                        "value": 9.7
                    },
                    {
                        "label": "播放量",
                        "value": "3441.4万"
                    },
                    {
                        "label": "追番数",
                        "value": "198.9万"
                    },
                    {
                        "label": "投币数",
                        "value": "35.9万"
                    },
                    {
                        "label": "弹幕数",
                        "value": "31.5万"
                    }
                ]
            },
            {
                "nameCN": "Re：创造主",
                "summary": "人类创作了许许多多的故事。\n喜悦、悲伤、愤怒、感动。这些引人入胜的故事撼动着人们的心灵。\n但是，那些不过是作为旁观者的感想罢了。\n如果，故事中的登场人物们拥有了“意志”。那么对于他们来说，创作出故事的我们，是神一般的存在吗？\n\n——在我等的世界内发起变革。\n——对诸神之地进行制裁。\n\n任何人，都将成为“创造主(Creator)”。",
                "cover": "https://i0.hdslb.com/bfs/bangumi/3944fe0b84a5763cde6b0573773b89ba86b4321d.jpg",
                "url": "https://www.bilibili.com/bangumi/play/ss5998",
                "labels": [
                    {
                        "label": "全22话"
                    },
                    {
                        "label": "评分",
                        "value": 8.9
                    },
                    {
                        "label": "播放量",
                        "value": "1.1亿"
                    },
                    {
                        "label": "追番数",
                        "value": "397.4万"
                    },
                    {
                        "label": "投币数",
                        "value": "39.1万"
                    },
                    {
                        "label": "弹幕数",
                        "value": "265.1万"
                    }
                ]
            },
            {
                "nameCN": "时光代理人 第三季",
                "summary": "李天辰事件告一段落后，时光照相馆恢复了表面的平静，然而夏斐失踪的消息再次将众人卷入了命运的交叉点。\n随着Vein的回归与乔苓超能力的觉醒，程小时和陆光逐步触及到Bahati火灾案的秘密，而程小时的父亲程伟民和母亲邵媛媛似乎也与之有千丝万缕的联系。\n随着调查深入，来自某个神秘组织的刘枭开始了他的行动，而英都警察Jae的干预也使这场追寻真相的行动充满变数……",
                "cover": "https://i0.hdslb.com/bfs/bangumi/image/0ed1d9834dacc00a3d235fdeda4d754a885492fb.png",
                "url": "https://www.bilibili.com/bangumi/play/ss105212",
                "labels": [
                    {
                        "label": "即将开播"
                    },
                    {
                        "label": "评分"
                    },
                    {
                        "label": "播放量",
                        "value": "215.5万"
                    },
                    {
                        "label": "追番数",
                        "value": "1081.4万"
                    },
                    {
                        "label": "投币数",
                        "value": "1.7万"
                    },
                    {
                        "label": "弹幕数",
                        "value": "5.2万"
                    }
                ]
            },
            {
                "nameCN": "Fate/stay night [Unlimited Blade Works] 第二季",
                "summary": "Fate/stay night -UBW-是FSN的第二条路线Unlimited Blade Works的TV化作品。通过2010年1月23日上映的UBW剧场版，为我们应该已对该路线的故事情节有所了解。而即将于2014年10月4日播出的TV版到底又有何不同呢？\n或许是对游戏情节更加细致的描写，亦或是对某些未出现的场景作出的补充。于齿轮转动的无边旷野中，耳边再次回响起那浅吟低唱的咒文时，伴随着我们度过的那段难忘的圣杯战争又将重燃战火……",
                "cover": "https://i0.hdslb.com/bfs/bangumi/b1a70dca34c06545c36d7e5f29155c8c8817e36e.jpg",
                "url": "https://www.bilibili.com/bangumi/play/ss1587",
                "labels": [
                    {
                        "label": "全13话"
                    },
                    {
                        "label": "评分",
                        "value": 9.5
                    },
                    {
                        "label": "播放量",
                        "value": "1.9亿"
                    },
                    {
                        "label": "追番数",
                        "value": "349.8万"
                    },
                    {
                        "label": "投币数",
                        "value": "52.7万"
                    },
                    {
                        "label": "弹幕数",
                        "value": "288.3万"
                    }
                ]
            },
            {
                "nameCN": "测不准的阿波连同学 第二季",
                "summary": "阿波连玲奈是一个身材娇小，安静的女孩子，\n有点不太擅长把握与他人之间的距离。\n这让坐在隔壁座位的来堂同学，总觉得到有种距离感。\n有一天，来堂同学捡起了阿波连同学掉在地上的橡皮，\n以此为契机两人之间的距离开始急速接近！！\n“时而太远”“时而太近”，阿波连同学难以预测。\n迎来新学期后，这次连与转校生的距离也把握不好了！？\n在各种意义上“测不准”的紧贴系？青春爱情喜剧的大幕再次拉开！\n",
                "cover": "https://i0.hdslb.com/bfs/bangumi/image/f56b2c9938b981bc6e029ce4d7b2bb0bd29948c4.png",
                "url": "https://www.bilibili.com/bangumi/play/ss91305",
                "labels": [
                    {
                        "label": "全12话"
                    },
                    {
                        "label": "评分",
                        "value": 9.8
                    },
                    {
                        "label": "播放量",
                        "value": "1466.8万"
                    },
                    {
                        "label": "追番数",
                        "value": "366.2万"
                    },
                    {
                        "label": "投币数",
                        "value": "6.6万"
                    },
                    {
                        "label": "弹幕数",
                        "value": "6.3万"
                    }
                ]
            },
            {
                "nameCN": "打了300年的史莱姆，不知不觉就练到了满级 第二季",
                "summary": "亚梓莎在女神大人的安排下，成为了不老不死的魔女，并被转生到了一个充满奇幻色彩的异世界。 \n由于前世因为过劳而死亡，为此她深刻地反省，许愿可以过着悠悠哉哉的生活。为了维持生计，她每天固定打倒史莱姆，持续打了三百年――。\n\n结果一回神过来就练到满级、成为了世界最强！\n\n成为世界最强的传闻传开后，身怀隐情的龙族女孩、史莱姆的妖精、精灵和幽灵等女孩们接踵而至。\n亚梓莎无法对他们的烦恼和困境坐视不管，因此四处奔走解决问题让他们加入成为家人，和大家一起展开新的慢活人生。\n但新生活以慢活来说稍显得热闹过头了――！？\n\n前往红龙的故乡泡了温泉，去了魔族之国参加典礼，攻略了被称为世界树的巨大地下城。\n\n今天也要开始愉快的一天！\n",
                "cover": "https://i0.hdslb.com/bfs/bangumi/image/d9727717ee6b507225b26ae367a43a444a6157ca.png",
                "url": "https://www.bilibili.com/bangumi/play/ss91498",
                "labels": [
                    {
                        "label": "全12话"
                    },
                    {
                        "label": "评分",
                        "value": 9.5
                    },
                    {
                        "label": "播放量",
                        "value": "1533.1万"
                    },
                    {
                        "label": "追番数",
                        "value": "317.9万"
                    },
                    {
                        "label": "投币数",
                        "value": "4万"
                    },
                    {
                        "label": "弹幕数",
                        "value": "7万"
                    }
                ]
            },
            {
                "nameCN": "Angels of Death",
                "summary": "在一栋大楼最底层甦醒的13岁少女，瑞吉儿·加德纳(レイチェル・ガードナー)，她没有任何记忆，不知道自己为何在这里，而为了回到地面，她开始试着逃出去，但是突然在她面前出现了脸上缠满绷带的奇怪男子。\n两人之间的奇妙羁绊，随着那“荒诞的约定”而逐渐加深。这里究竟是什么地方？两人为何被禁锢于此？等待着两人的命运又是如何？为了从密闭大楼逃出的抱死觉悟之行揭开了序幕。两人最终是否能够坚守约定，并且安全地逃出这栋大楼呢？",
                "cover": "https://i0.hdslb.com/bfs/bangumi/0f11dfac18d744518669b2d211263f03d41d619c.png",
                "url": "https://www.bilibili.com/bangumi/play/ss24625",
                "labels": [
                    {
                        "label": "全16话"
                    },
                    {
                        "label": "评分",
                        "value": 9.5
                    },
                    {
                        "label": "播放量",
                        "value": "1.4亿"
                    },
                    {
                        "label": "追番数",
                        "value": "579.6万"
                    },
                    {
                        "label": "投币数",
                        "value": "82.2万"
                    },
                    {
                        "label": "弹幕数",
                        "value": "354.9万"
                    }
                ]
            }
        ],
        "pageNumber": 1,
        "pageSize": 10,
        "total": 90,
        "totalPages": 9
    }
}